{
    "swagger": "2.0",
    "info": {
        "title": "L5 Swagger API",
        "description": "L5 Swagger API description",
        "contact": {
            "email": "student10c1thpt@gmail.com"
        },
        "version": "1.0.0"
    },
    "basePath": "/api",
    "schemes": [
        "http"
    ],
    "paths": {
        "/auth/signin": {
            "post": {
                "tags": [
                    "Auth"
                ],
                "summary": "Logs user into the system",
                "description": "Logs user into the system",
                "operationId": "signinUser",
                "parameters": [
                    {
                        "name": "body",
                        "in": "body",
                        "description": "Created user object",
                        "required": true,
                        "schema": {
                            "properties": {
                                "emailOrPhone": {
                                    "type": "string",
                                    "default": "kan@gmail.com"
                                },
                                "password": {
                                    "type": "string",
                                    "default": "14121412"
                                }
                            }
                        }
                    }
                ],
                "responses": {
                    "200": {
                        "description": "Success"
                    },
                    "400": {
                        "description": "Invalid request params"
                    },
                    "401": {
                        "description": "Request is not authenticated"
                    },
                    "404": {
                        "description": "Not Found"
                    }
                }
            }
        },
        "/auth/signup": {
            "post": {
                "tags": [
                    "Auth"
                ],
                "summary": "Register user",
                "description": "Register user",
                "operationId": "signupUser",
                "parameters": [
                    {
                        "name": "body",
                        "in": "body",
                        "description": "Created user object",
                        "required": true,
                        "schema": {
                            "properties": {
                                "name": {
                                    "type": "string",
                                    "default": "kan"
                                },
                                "emailOrPhone": {
                                    "type": "string",
                                    "default": "kan@gmail.com"
                                },
                                "password": {
                                    "type": "string",
                                    "default": "14121412"
                                },
                                "repassword": {
                                    "type": "string",
                                    "default": "14121412"
                                },
                                "date_of_birth": {
                                    "type": "string",
                                    "format": "date"
                                },
                                "gender": {
                                    "type": "string",
                                    "default": "male"
                                },
                                "description": {
                                    "type": "string",
                                    "default": "About Kan"
                                }
                            }
                        }
                    }
                ],
                "responses": {
                    "200": {
                        "description": "Success"
                    },
                    "400": {
                        "description": "Invalid request params"
                    },
                    "401": {
                        "description": "Request is not authenticated"
                    },
                    "404": {
                        "description": "Not Found"
                    }
                }
            }
        },
        "/auth/change-password": {
            "post": {
                "tags": [
                    "Auth"
                ],
                "summary": "Change Password User",
                "description": "Change Password User",
                "operationId": "ChangePassword",
                "parameters": [
                    {
                        "name": "body",
                        "in": "body",
                        "description": "Created user object",
                        "required": true,
                        "schema": {
                            "properties": {
                                "password": {
                                    "type": "string",
                                    "default": "14121412"
                                },
                                "newpassword": {
                                    "type": "string",
                                    "default": "14121412"
                                },
                                "repassword": {
                                    "type": "string",
                                    "default": "14121412"
                                }
                            }
                        }
                    }
                ],
                "responses": {
                    "200": {
                        "description": "Success"
                    },
                    "400": {
                        "description": "Invalid request params"
                    },
                    "401": {
                        "description": "Request is not authenticated"
                    },
                    "404": {
                        "description": "Not Found"
                    }
                },
                "security": [
                    {
                        "passport": [
                            "*"
                        ]
                    }
                ]
            }
        },
        "/auth/password/request-reset-password": {
            "post": {
                "tags": [
                    "Auth"
                ],
                "description": "Request token to reset password",
                "parameters": [
                    {
                        "name": "body",
                        "in": "body",
                        "description": "Provide email to get token",
                        "required": true,
                        "schema": {
                            "properties": {
                                "email": {
                                    "type": "string",
                                    "default": "kan@gmail.com"
                                }
                            }
                        }
                    }
                ],
                "responses": {
                    "200": {
                        "description": "Success"
                    },
                    "400": {
                        "description": "Invalid request params"
                    },
                    "401": {
                        "description": "Request is not authenticated"
                    },
                    "404": {
                        "description": "Not Found"
                    }
                }
            }
        },
        "/auth/password/reset-password/{token}": {
            "get": {
                "tags": [
                    "Auth"
                ],
                "description": "Get info with token, check token",
                "parameters": [
                    {
                        "name": "token",
                        "in": "path",
                        "description": "Check token reset password, get info reset password",
                        "required": true,
                        "type": "string"
                    }
                ],
                "responses": {
                    "200": {
                        "description": "Success"
                    },
                    "400": {
                        "description": "Invalid request params"
                    },
                    "401": {
                        "description": "Request is not authenticated"
                    },
                    "404": {
                        "description": "Not Found"
                    }
                }
            },
            "post": {
                "tags": [
                    "Auth"
                ],
                "description": "Reset password",
                "parameters": [
                    {
                        "name": "body",
                        "in": "body",
                        "description": "Provide email to get token",
                        "required": true,
                        "schema": {
                            "properties": {
                                "token": {
                                    "type": "string",
                                    "default": "   "
                                },
                                "password": {
                                    "type": "string",
                                    "default": "password"
                                },
                                "repassword": {
                                    "type": "string",
                                    "default": "repassword"
                                }
                            }
                        }
                    }
                ],
                "responses": {
                    "200": {
                        "description": "Success"
                    },
                    "400": {
                        "description": "Invalid request params"
                    },
                    "401": {
                        "description": "Request is not authenticated"
                    },
                    "404": {
                        "description": "Not Found"
                    }
                }
            }
        },
        "/user/profile": {
            "get": {
                "tags": [
                    "Users"
                ],
                "summary": "Profile User",
                "description": "Profile User",
                "operationId": "getProfile",
                "responses": {
                    "200": {
                        "description": "Success"
                    },
                    "400": {
                        "description": "Invalid request params"
                    },
                    "401": {
                        "description": "Request is not authenticated"
                    },
                    "404": {
                        "description": "Not Found"
                    }
                },
                "security": [
                    {
                        "passport": [
                            "*"
                        ]
                    }
                ]
            }
        },
        "/user/update-profile": {
            "put": {
                "tags": [
                    "Users"
                ],
                "summary": "Update profile User",
                "description": "Update profile User",
                "operationId": "UpdateProfile",
                "parameters": [
                    {
                        "name": "body",
                        "in": "body",
                        "description": "Created user object",
                        "required": true,
                        "schema": {
                            "properties": {
                                "name": {
                                    "type": "string",
                                    "default": "kan"
                                },
                                "date_of_birth": {
                                    "type": "string",
                                    "format": "date"
                                },
                                "gender": {
                                    "description": "male or female",
                                    "type": "string",
                                    "default": "male"
                                },
                                "description": {
                                    "type": "string",
                                    "default": "About Kan"
                                }
                            }
                        }
                    }
                ],
                "responses": {
                    "200": {
                        "description": "Success"
                    },
                    "400": {
                        "description": "Invalid request params"
                    },
                    "401": {
                        "description": "Request is not authenticated"
                    },
                    "404": {
                        "description": "Not Found"
                    }
                },
                "security": [
                    {
                        "passport": [
                            "*"
                        ]
                    }
                ]
            }
        },
        "/user/request-add-friend/{friendId}": {
            "post": {
                "tags": [
                    "Relationship"
                ],
                "summary": "User Add Friend",
                "description": "User Add Friend",
                "operationId": "UserAddFriend",
                "parameters": [
                    {
                        "name": "friendId",
                        "in": "path",
                        "description": "fiendId is id of user who you want to make friend with",
                        "required": true,
                        "type": "string"
                    }
                ],
                "responses": {
                    "200": {
                        "description": "Success"
                    },
                    "400": {
                        "description": "Invalid request params"
                    },
                    "401": {
                        "description": "Request is not authenticated"
                    },
                    "404": {
                        "description": "Not Found"
                    }
                },
                "security": [
                    {
                        "passport": [
                            "*"
                        ]
                    }
                ]
            }
        },
        "/user/request-add-friend": {
            "get": {
                "tags": [
                    "Relationship"
                ],
                "summary": "Get List Friend Request",
                "description": "Get List Friend Request",
                "operationId": "GetListFriendRequest",
                "responses": {
                    "200": {
                        "description": "Success"
                    },
                    "400": {
                        "description": "Invalid request params"
                    },
                    "401": {
                        "description": "Request is not authenticated"
                    },
                    "404": {
                        "description": "Not Found"
                    }
                },
                "security": [
                    {
                        "passport": [
                            "*"
                        ]
                    }
                ]
            }
        },
        "/user/accept-request-friend/{friendId}": {
            "post": {
                "tags": [
                    "Relationship"
                ],
                "summary": "User Accept Friend",
                "description": "User Accept Friend",
                "operationId": "UserAcceptFriend",
                "parameters": [
                    {
                        "name": "friendId",
                        "in": "path",
                        "description": "fiendId is id of user who you want to accept friend",
                        "required": true,
                        "type": "string"
                    }
                ],
                "responses": {
                    "200": {
                        "description": "Success"
                    },
                    "400": {
                        "description": "Invalid request params"
                    },
                    "401": {
                        "description": "Request is not authenticated"
                    },
                    "404": {
                        "description": "Not Found"
                    }
                },
                "security": [
                    {
                        "passport": [
                            "*"
                        ]
                    }
                ]
            }
        },
        "/user/list-friend": {
            "get": {
                "tags": [
                    "Relationship"
                ],
                "summary": "Get List Friend",
                "description": "Get List Friend",
                "operationId": "GetListFriend",
                "responses": {
                    "200": {
                        "description": "Success"
                    },
                    "400": {
                        "description": "Invalid request params"
                    },
                    "401": {
                        "description": "Request is not authenticated"
                    },
                    "404": {
                        "description": "Not Found"
                    }
                },
                "security": [
                    {
                        "passport": [
                            "*"
                        ]
                    }
                ]
            }
        },
        "/test": {
            "get": {
                "tags": [
                    "Test"
                ],
                "summary": "Test",
                "description": "Test",
                "operationId": "Test",
                "responses": {
                    "200": {
                        "description": "Success"
                    },
                    "400": {
                        "description": "Invalid request params"
                    },
                    "401": {
                        "description": "Request is not authenticated"
                    },
                    "404": {
                        "description": "Not Found"
                    }
                },
                "security": [
                    {
                        "passport": [
                            "*"
                        ]
                    }
                ]
            }
        },
        "/post/create": {
            "post": {
                "tags": [
                    "Posts"
                ],
                "summary": "Create Post",
                "description": "Create Post",
                "operationId": "createPost",
                "parameters": [
                    {
                        "name": "body",
                        "in": "body",
                        "description": "Created post",
                        "required": true,
                        "schema": {
                            "properties": {
                                "content": {
                                    "type": "string",
                                    "default": "About Kan"
                                },
                                "share": {
                                    "type": "integer",
                                    "default": "About Kan"
                                }
                            }
                        }
                    }
                ],
                "responses": {
                    "200": {
                        "description": "Success"
                    },
                    "400": {
                        "description": "Invalid request params"
                    },
                    "401": {
                        "description": "Request is not authenticated"
                    },
                    "404": {
                        "description": "Not Found"
                    }
                },
                "security": [
                    {
                        "passport": [
                            "*"
                        ]
                    }
                ]
            }
        },
        "/post/read/{postId}": {
            "get": {
                "tags": [
                    "Posts"
                ],
                "description": "description",
                "parameters": [
                    {
                        "name": "postId",
                        "in": "path",
                        "description": "description",
                        "required": true,
                        "type": "string"
                    }
                ],
                "responses": {
                    "200": {
                        "description": "Success"
                    },
                    "400": {
                        "description": "Invalid request params"
                    },
                    "401": {
                        "description": "Request is not authenticated"
                    },
                    "404": {
                        "description": "Not Found"
                    }
                },
                "security": [
                    {
                        "passport": [
                            "*"
                        ]
                    }
                ]
            }
        },
        "/post/new-feed": {
            "get": {
                "tags": [
                    "Posts"
                ],
                "summary": "Get New Feed",
                "description": "Get New Feed",
                "operationId": "getNewFeed",
                "responses": {
                    "200": {
                        "description": "Success"
                    },
                    "400": {
                        "description": "Invalid request params"
                    },
                    "401": {
                        "description": "Request is not authenticated"
                    },
                    "404": {
                        "description": "Not Found"
                    }
                },
                "security": [
                    {
                        "passport": [
                            "*"
                        ]
                    }
                ]
            }
        }
    },
    "definitions": {
        "ApiResponse": {
            "properties": {
                "error": {
                    "description": "",
                    "type": "boolean",
                    "format": "int32"
                },
                "data": {
                    "description": "",
                    "type": "string"
                },
                "errors": {
                    "description": "",
                    "type": "string"
                }
            },
            "type": "object"
        }
    },
    "tags": [
        {
            "name": "Users",
            "description": "Operations about user",
            "externalDocs": {
                "description": "Find out more about our store",
                "url": "http://swagger.io"
            }
        },
        {
            "name": "Auth",
            "description": "Operations about user",
            "externalDocs": {
                "description": "Find out more about our store",
                "url": "http://swagger.io"
            }
        },
        {
            "name": "Relationship",
            "description": "Relationship of user",
            "externalDocs": {
                "description": "Find out more about our store",
                "url": "http://swagger.io"
            }
        },
        {
            "name": "Posts",
            "description": "Relationship of user",
            "externalDocs": {
                "description": "Find out more about our store",
                "url": "http://swagger.io"
            }
        },
        {
            "name": "Test",
            "description": "Test",
            "externalDocs": {
                "description": "Find out more about our store",
                "url": "http://swagger.io"
            }
        }
    ],
    "externalDocs": {
        "description": "Find out more about Swagger",
        "url": "http://swagger.io"
    },
    "securityDefinitions": {
        "passport": {
            "type": "apiKey",
            "description": "A short description for security scheme",
            "name": "authorization",
            "in": "header"
        }
    }
}